<?xml version="1.0" encoding="UTF-8" standalone="no"?>
<!-- Created with Inkscape (http://www.inkscape.org/) -->

<svg
   xmlns:dc="http://purl.org/dc/elements/1.1/"
   xmlns:cc="http://creativecommons.org/ns#"
   xmlns:rdf="http://www.w3.org/1999/02/22-rdf-syntax-ns#"
   xmlns:svg="http://www.w3.org/2000/svg"
   xmlns="http://www.w3.org/2000/svg"
   xmlns:sodipodi="http://sodipodi.sourceforge.net/DTD/sodipodi-0.dtd"
   xmlns:inkscape="http://www.inkscape.org/namespaces/inkscape"
   version="1.1"
   id="svg2"
   xml:space="preserve"
   width="1313.4597"
   height="742.92761"
   viewBox="0 0 1313.4597 742.92761"
   sodipodi:docname="tremoniawappen_schrift_schwarzweiss.svg"
   inkscape:version="0.92.4 (5da689c313, 2019-01-14)"><metadata
     id="metadata8"><rdf:RDF><cc:Work
         rdf:about=""><dc:format>image/svg+xml</dc:format><dc:type
           rdf:resource="http://purl.org/dc/dcmitype/StillImage" /><dc:title></dc:title></cc:Work></rdf:RDF></metadata><defs
     id="defs6"><clipPath
       clipPathUnits="userSpaceOnUse"
       id="clipPath18"><path
         d="M 0,568 H 477 V 0 H 0 Z"
         id="path16"
         inkscape:connector-curvature="0" /></clipPath><clipPath
       id="clipPath3003"
       clipPathUnits="userSpaceOnUse"><path
         inkscape:connector-curvature="0"
         id="path3005"
         d="M 0,568 H 477 V 0 H 0 Z" /></clipPath></defs><sodipodi:namedview
     pagecolor="#ffffff"
     bordercolor="#666666"
     borderopacity="1"
     objecttolerance="10"
     gridtolerance="10"
     guidetolerance="10"
     inkscape:pageopacity="0"
     inkscape:pageshadow="2"
     inkscape:window-width="1920"
     inkscape:window-height="1017"
     id="namedview4"
     showgrid="false"
     fit-margin-top="0"
     fit-margin-left="0"
     fit-margin-right="0"
     fit-margin-bottom="0"
     inkscape:zoom="0.31161973"
     inkscape:cx="-391.72916"
     inkscape:cy="373.97894"
     inkscape:window-x="-8"
     inkscape:window-y="-8"
     inkscape:window-maximized="1"
     inkscape:current-layer="g10" /><g
     id="g10"
     inkscape:groupmode="layer"
     inkscape:label="tremoniawappen6"
     transform="matrix(1.3333333,0,0,-1.3333333,-8.5540516,747.61528)"><text
   xml:space="preserve"
   style="font-style:italic;font-variant:normal;font-weight:normal;font-stretch:normal;font-size:40px;line-height:1.25;font-family:Georgia;-inkscape-font-specification:'Georgia Italic';text-align:start;letter-spacing:0px;word-spacing:0px;text-anchor:start;fill:#000000;fill-opacity:1;stroke:none;stroke-width:0.75"
   x="517.45764"
   y="-392.30511"
   id="text1059"
   transform="scale(1,-1)"
   inkscape:export-xdpi="9.3776703"
   inkscape:export-ydpi="9.3776703"><tspan
     sodipodi:role="line"
     id="tspan1057"
     x="517.45764"
     y="-392.30511"
     style="font-style:normal;font-variant:normal;font-weight:normal;font-stretch:normal;font-size:110px;font-family:Georgia;-inkscape-font-specification:Georgia;fill:#000000;fill-opacity:1;stroke-width:0.75">Tremonia</tspan><tspan
     sodipodi:role="line"
     x="517.45764"
     y="-254.80511"
     style="font-style:normal;font-variant:normal;font-weight:normal;font-stretch:normal;font-size:110px;font-family:Georgia;-inkscape-font-specification:Georgia;fill:#000000;fill-opacity:1;stroke-width:0.75"
     id="tspan1061">Fechten</tspan></text>

<g
   transform="matrix(0.93750002,0,0,0.93750002,18.091355,18.220667)"
   id="g3001"
   clip-path="url(#clipPath3003)"
   inkscape:export-xdpi="9.3776703"
   inkscape:export-ydpi="9.3776703"><g
     id="g3007"
     transform="translate(10.0796,494.5527)"><path
       d="m 0,0 -0.778,61.683 94.989,0.293 0.406,-63.879 82.79,0.121 1.357,64.052 h 104.96 l 0.528,-62.505 77.659,-1.038 0.513,64.555 96.491,0.026 L 458.719,0 c 0,0 2.398,-264.687 -68.497,-365.314 -40.644,-57.691 -161.901,-122.465 -161.901,-122.465 0,0 -123.396,70.883 -163.976,128.692 C -5.777,-259.193 0,0 0,0"
       style="fill:#ffffff;fill-opacity:1;fill-rule:nonzero;stroke:none"
       id="path3009"
       inkscape:connector-curvature="0" /></g><g
     id="g3011"
     transform="translate(10.0796,494.5527)"><path
       d="m 0,0 -0.778,61.683 94.989,0.293 0.406,-63.879 82.79,0.121 1.357,64.052 h 104.96 l 0.528,-62.505 77.659,-1.038 0.513,64.555 96.491,0.026 L 458.719,0 c 0,0 2.398,-264.687 -68.497,-365.314 -40.644,-57.691 -161.901,-122.465 -161.901,-122.465 0,0 -123.396,70.883 -163.976,128.692 C -5.777,-259.193 0,0 0,0 Z"
       style="fill:none;stroke:#000000;stroke-width:5.69999981;stroke-linecap:butt;stroke-linejoin:miter;stroke-miterlimit:4;stroke-dasharray:none;stroke-opacity:1"
       id="path3013"
       inkscape:connector-curvature="0" /></g><g
     id="g3015"
     transform="translate(363.293,453.9434)"><path
       d="m 0,0 45.343,1.201 7.508,0.902 6.607,3.303 9.308,6.305 0.901,-13.814 -5.705,-9.307 -10.811,-6.007 -23.424,-5.406 -18.618,-0.599 -11.412,0.3 -10.809,9.609 z"
       style="fill:#000000;fill-opacity:1;fill-rule:nonzero;stroke:none"
       id="path3017"
       inkscape:connector-curvature="0" /></g><g
     id="g3019"
     transform="translate(434.9121,445.835)"><path
       d="m 0,0 -6.006,-6.006 c 0,0 -11.712,-5.405 -12.912,-6.004 -1.201,-0.601 -14.715,-3.905 -14.715,-3.905 l -15.615,-0.6 -17.718,-1.501 1.201,-2.404 12.614,-2.101 26.424,0.9 12.012,1.502 9.311,4.805 4.802,6.305 z"
       style="fill:#000000;fill-opacity:1;fill-rule:nonzero;stroke:none"
       id="path3021"
       inkscape:connector-curvature="0" /></g><g
     id="g3023"
     transform="translate(355.2061,415.5264)"><path
       d="m 0,0 9.608,8.41 8.41,-2.703 20.42,-0.902 14.114,0.301 7.806,1.501 13.213,5.106 1.2,-7.208 -2.1,-6.906 -9.911,-6.307 -7.506,-2.702 -16.816,-0.6 -23.423,-0.301 c 0,0 -6.608,3.302 -8.109,3.904 -1.502,0.601 -4.204,2.702 -4.204,2.702 z"
       style="fill:#000000;fill-opacity:1;fill-rule:nonzero;stroke:none"
       id="path3025"
       inkscape:connector-curvature="0" /></g><g
     id="g3027"
     transform="translate(365.416,399.9121)"><path
       d="m 0,0 h 13.813 l 27.028,-0.301 8.407,3.003 9.608,3.605 5.706,5.404 -0.6,-8.107 c 0,0 -2.702,-4.504 -4.203,-5.406 -1.502,-0.9 -11.113,-4.204 -11.113,-4.204 L 11.711,-6.307 0.6,-6.607 -1.803,-4.504 Z"
       style="fill:#000000;fill-opacity:1;fill-rule:nonzero;stroke:none"
       id="path3029"
       inkscape:connector-curvature="0" /></g><g
     id="g3031"
     transform="translate(357.3066,391.5049)"><path
       d="m 0,0 4.505,0.9 5.105,-1.802 16.216,-0.6 h 30.93 l 8.408,2.703 4.805,1.501 h 3.905 c 0,0 0.899,-5.406 0.899,-7.507 0,-2.103 -3.002,-8.109 -3.002,-8.109 l -10.209,-5.405 -11.111,-2.401 -15.917,-0.301 -16.816,2.402 -10.511,4.203 -8.106,6.006 z"
       style="fill:#000000;fill-opacity:1;fill-rule:nonzero;stroke:none"
       id="path3033"
       inkscape:connector-curvature="0" /></g><g
     id="g3035"
     transform="translate(365.416,371.3838)"><path
       d="m 0,0 16.816,-5.104 h 7.807 l 12.012,-0.902 11.711,2.703 14.416,4.504 c 0,0 0,-2.702 -0.301,-4.803 -0.301,-2.103 -3.003,-6.307 -4.204,-6.908 -1.202,-0.599 -9.009,-1.803 -10.511,-2.402 -1.501,-0.601 -12.012,-0.601 -14.413,-0.3 -2.403,0.3 -12.613,2.401 -14.716,3.003 -2.103,0.601 -11.711,5.105 -11.711,5.105 L 0,-2.101 Z"
       style="fill:#000000;fill-opacity:1;fill-rule:nonzero;stroke:none"
       id="path3037"
       inkscape:connector-curvature="0" /></g><g
     id="g3039"
     transform="translate(351.3008,368.6816)"><path
       d="m 0,0 7.508,0.602 6.006,-2.705 15.614,-7.507 12.314,-4.204 28.527,-0.6 6.607,2.402 v -5.705 c 0,0 -1.201,-7.808 -1.803,-9.009 -0.6,-1.201 -4.804,-6.906 -4.804,-6.906 0,0 -2.702,-3.905 -4.204,-4.505 -1.501,-0.601 -5.405,-1.501 -7.507,-1.501 -2.104,0 -7.207,0.9 -9.611,0.9 -2.401,0 -12.011,2.103 -12.011,2.103 l -12.013,4.204 c 0,0 -5.703,5.104 -7.806,6.906 -2.102,1.802 -5.404,4.204 -6.906,5.106 -1.501,0.9 -5.105,6.605 -6.307,6.906 -1.201,0.3 -6.005,5.106 -6.005,5.106"
       style="fill:#000000;fill-opacity:1;fill-rule:nonzero;stroke:none"
       id="path3041"
       inkscape:connector-curvature="0" /></g><g
     id="g3043"
     transform="translate(348.2998,350.3633)"><path
       d="m 0,0 2.101,1.501 c 0,0 9.909,-6.304 10.21,-7.507 0.3,-1.201 14.714,-10.21 14.714,-10.21 0,0 9.609,-4.805 11.11,-6.306 1.502,-1.502 12.011,-5.104 12.011,-5.104 0,0 5.407,-1.502 6.608,-1.802 1.203,-0.301 16.817,0 16.817,0 l 6.907,2.702 -0.301,-2.702 c 0,0 -4.204,-3.603 -4.804,-4.805 -0.602,-1.201 -6.006,-4.804 -7.507,-5.405 -1.502,-0.601 -7.808,-1.802 -10.511,-1.502 -2.704,0.301 -9.61,2.402 -11.112,3.304 -1.501,0.9 -7.805,4.504 -9.609,5.104 -1.801,0.601 -9.309,5.106 -10.511,6.006 -1.199,0.902 -8.107,5.106 -10.208,7.206 -2.102,2.103 -5.406,7.209 -6.908,9.31 C 7.506,-8.107 4.202,-6.006 3.302,-4.803 2.401,-3.603 0,-0.301 0,0"
       style="fill:#000000;fill-opacity:1;fill-rule:nonzero;stroke:none"
       id="path3045"
       inkscape:connector-curvature="0" /></g><g
     id="g3047"
     transform="translate(334.7861,341.9556)"><path
       d="M 0,0 10.81,5.706 16.214,-0.9 27.326,-12.012 39.037,-22.823 c 0,0 10.511,-5.405 12.313,-7.207 1.8,-1.802 14.713,-8.106 17.118,-8.708 2.401,-0.601 12.912,-5.106 15.012,-6.306 2.103,-1.201 7.808,1.2 8.41,0 0.599,-1.201 -2.404,-10.511 -2.404,-10.511 0,0 -1.502,-7.207 -4.505,-8.107 -3.002,-0.901 -10.209,-3.904 -10.209,-3.904 H 57.055 c -1.201,0 -6.908,2.704 -8.409,3.604 -1.502,0.9 -7.506,6.906 -9.007,7.507 -1.502,0.6 -5.705,6.605 -8.708,9.909 -3.003,3.304 -8.711,11.413 -9.911,12.313 -1.202,0.9 -6.606,7.507 -9.91,10.811 -3.303,3.301 -6.908,9.909 -8.107,10.809 -1.202,0.902 -2.403,2.404 -2.403,2.404 z"
       style="fill:#000000;fill-opacity:1;fill-rule:nonzero;stroke:none"
       id="path3049"
       inkscape:connector-curvature="0" /></g><g
     id="g3051"
     transform="translate(331.7832,324.8379)"><path
       d="m 0,0 2.701,2.704 c 0,0 17.418,-21.622 18.319,-22.823 0.901,-1.2 10.509,-14.114 10.509,-14.114 0,0 8.11,-7.207 9.911,-8.708 1.801,-1.502 8.706,-9.309 10.208,-10.21 1.502,-0.9 10.511,-4.806 10.511,-4.806 0,0 9.312,-3.602 10.813,-4.803 1.502,-1.202 15.313,-2.704 15.313,-2.704 0,0 -3.304,-4.502 -4.805,-5.404 -1.501,-0.901 -15.013,-2.703 -15.013,-2.703 0,0 -19.821,6.307 -21.021,6.307 -1.202,0 -9.008,9.608 -9.008,9.608 0,0 -7.808,9.911 -9.009,10.811 -1.202,0.901 -8.109,11.411 -8.109,11.411 0,0 -7.207,12.012 -8.408,12.913 -1.202,0.901 -5.404,8.408 -6.307,9.91 C 5.704,-11.11 0,-1.501 0,0"
       style="fill:#000000;fill-opacity:1;fill-rule:nonzero;stroke:none"
       id="path3053"
       inkscape:connector-curvature="0" /></g><g
     id="g3055"
     transform="translate(318.2705,325.1387)"><path
       d="m 0,0 10.809,0.902 c 0,0 6.306,-14.115 6.306,-15.616 0,-1.502 11.111,-21.322 11.413,-22.522 0.299,-1.201 10.809,-17.417 11.709,-19.52 0.903,-2.1 12.313,-15.915 13.215,-17.116 0.9,-1.2 9.609,-8.708 9.609,-8.708 0,0 9.91,-10.21 11.109,-11.111 1.203,-0.901 9.311,-5.104 9.311,-5.104 l 7.807,-5.105 -2.703,-6.006 -8.106,-7.508 c 0,0 -12.614,-0.601 -14.115,-0.601 -1.502,0 -11.112,1.202 -12.613,2.402 -1.502,1.202 -6.305,5.707 -9.608,8.407 -3.304,2.705 -10.511,10.512 -11.712,12.314 -1.202,1.802 -7.208,10.811 -8.408,12.912 -1.202,2.103 -6.908,16.215 -6.908,16.215 l -6.907,17.118 -6.605,14.414 -4.205,16.516 -0.3,8.708 z"
       style="fill:#000000;fill-opacity:1;fill-rule:nonzero;stroke:none"
       id="path3057"
       inkscape:connector-curvature="0" /></g><g
     id="g3059"
     transform="translate(309.2612,308.3237)"><path
       d="m 0,0 h 4.202 c 0,0 7.209,-24.625 7.507,-25.826 0.303,-1.201 5.106,-12.613 5.106,-14.414 0,-1.802 6.906,-13.814 7.809,-15.916 0.901,-2.101 5.705,-10.511 6.005,-12.612 0.301,-2.103 4.204,-10.811 4.204,-10.811 l -12.012,10.21 c 0,0 -5.705,4.805 -6.905,8.708 -1.204,3.905 -6.007,14.115 -6.007,14.115 0,0 -5.106,18.018 -5.106,19.218 0,1.201 -2.702,11.11 -2.702,13.514 C 2.101,-11.413 0.6,0.599 0,0"
       style="fill:#000000;fill-opacity:1;fill-rule:nonzero;stroke:none"
       id="path3061"
       inkscape:connector-curvature="0" /></g><g
     id="g3063"
     transform="translate(285.2378,302.6162)"><path
       d="m 0,0 h 8.407 l 0.901,4.505 4.805,6.006 3.604,1.202 c 0,0 1.501,-8.109 1.802,-10.811 0.299,-2.702 0.9,-11.111 0.9,-12.312 0,-1.201 2.703,-12.012 2.703,-13.814 0,-1.8 4.203,-12.012 6.005,-14.714 1.802,-2.703 3.603,-8.107 4.205,-9.609 0.6,-1.501 2.704,-4.805 2.704,-4.805 l -7.209,-2.702 c 0,0 -9.308,5.104 -9.909,6.306 -0.602,1.201 -6.607,10.509 -6.607,12.01 0,1.502 -3.904,13.215 -3.904,13.215 0,0 -3.003,13.511 -4.504,14.413 C 2.401,-10.209 0,-0.599 0,0"
       style="fill:#000000;fill-opacity:1;fill-rule:nonzero;stroke:none"
       id="path3065"
       inkscape:connector-curvature="0" /></g><g
     id="g3067"
     transform="translate(363.293,453.9434)"><path
       d="m 0,0 45.343,1.201 7.508,0.902 6.607,3.303 9.308,6.305 0.901,-13.814 -5.705,-9.307 -10.811,-6.007 -23.424,-5.406 -18.618,-0.599 -11.412,0.3 -10.809,9.609 z"
       style="fill:#000000;fill-opacity:1;fill-rule:nonzero;stroke:none"
       id="path3069"
       inkscape:connector-curvature="0" /></g><g
     id="g3071"
     transform="translate(434.9121,445.835)"><path
       d="m 0,0 -6.006,-6.006 c 0,0 -11.712,-5.405 -12.912,-6.004 -1.201,-0.601 -14.715,-3.905 -14.715,-3.905 l -15.615,-0.6 -17.718,-1.501 1.201,-2.404 12.614,-2.101 26.424,0.9 12.012,1.502 9.311,4.805 4.802,6.305 z"
       style="fill:#000000;fill-opacity:1;fill-rule:nonzero;stroke:none"
       id="path3073"
       inkscape:connector-curvature="0" /></g><g
     id="g3075"
     transform="translate(355.2061,415.5264)"><path
       d="m 0,0 9.608,8.41 8.41,-2.703 20.42,-0.902 14.114,0.301 7.806,1.501 13.213,5.106 1.2,-7.208 -2.1,-6.906 -9.911,-6.307 -7.506,-2.702 -16.816,-0.6 -23.423,-0.301 c 0,0 -6.608,3.302 -8.109,3.904 -1.502,0.601 -4.204,2.702 -4.204,2.702 z"
       style="fill:#000000;fill-opacity:1;fill-rule:nonzero;stroke:none"
       id="path3077"
       inkscape:connector-curvature="0" /></g><g
     id="g3079"
     transform="translate(365.416,399.9121)"><path
       d="m 0,0 h 13.813 l 27.028,-0.301 8.407,3.003 9.608,3.605 5.706,5.404 -0.6,-8.107 c 0,0 -2.702,-4.504 -4.203,-5.406 -1.502,-0.9 -11.113,-4.204 -11.113,-4.204 L 11.711,-6.307 0.6,-6.607 -1.803,-4.504 Z"
       style="fill:#000000;fill-opacity:1;fill-rule:nonzero;stroke:none"
       id="path3081"
       inkscape:connector-curvature="0" /></g><g
     id="g3083"
     transform="translate(357.3066,391.5049)"><path
       d="m 0,0 4.505,0.9 5.105,-1.802 16.216,-0.6 h 30.93 l 8.408,2.703 4.805,1.501 h 3.905 c 0,0 0.899,-5.406 0.899,-7.507 0,-2.103 -3.002,-8.109 -3.002,-8.109 l -10.209,-5.405 -11.111,-2.401 -15.917,-0.301 -16.816,2.402 -10.511,4.203 -8.106,6.006 z"
       style="fill:#000000;fill-opacity:1;fill-rule:nonzero;stroke:none"
       id="path3085"
       inkscape:connector-curvature="0" /></g><g
     id="g3087"
     transform="translate(365.416,371.3838)"><path
       d="m 0,0 16.816,-5.104 h 7.807 l 12.012,-0.902 11.711,2.703 14.416,4.504 c 0,0 0,-2.702 -0.301,-4.803 -0.301,-2.103 -3.003,-6.307 -4.204,-6.908 -1.202,-0.599 -9.009,-1.803 -10.511,-2.402 -1.501,-0.601 -12.012,-0.601 -14.413,-0.3 -2.403,0.3 -12.613,2.401 -14.716,3.003 -2.103,0.601 -11.711,5.105 -11.711,5.105 L 0,-2.101 Z"
       style="fill:#000000;fill-opacity:1;fill-rule:nonzero;stroke:none"
       id="path3089"
       inkscape:connector-curvature="0" /></g><g
     id="g3091"
     transform="translate(351.3008,368.6816)"><path
       d="m 0,0 7.508,0.602 6.006,-2.705 15.614,-7.507 12.314,-4.204 28.527,-0.6 6.607,2.402 v -5.705 c 0,0 -1.201,-7.808 -1.803,-9.009 -0.6,-1.201 -4.804,-6.906 -4.804,-6.906 0,0 -2.702,-3.905 -4.204,-4.505 -1.501,-0.601 -5.405,-1.501 -7.507,-1.501 -2.104,0 -7.207,0.9 -9.611,0.9 -2.401,0 -12.011,2.103 -12.011,2.103 l -12.013,4.204 c 0,0 -5.703,5.104 -7.806,6.906 -2.102,1.802 -5.404,4.204 -6.906,5.106 -1.501,0.9 -5.105,6.605 -6.307,6.906 -1.201,0.3 -6.005,5.106 -6.005,5.106"
       style="fill:#000000;fill-opacity:1;fill-rule:nonzero;stroke:none"
       id="path3093"
       inkscape:connector-curvature="0" /></g><g
     id="g3095"
     transform="translate(348.2998,350.3633)"><path
       d="m 0,0 2.101,1.501 c 0,0 9.909,-6.304 10.21,-7.507 0.3,-1.201 14.714,-10.21 14.714,-10.21 0,0 9.609,-4.805 11.11,-6.306 1.502,-1.502 12.011,-5.104 12.011,-5.104 0,0 5.407,-1.502 6.608,-1.802 1.203,-0.301 16.817,0 16.817,0 l 6.907,2.702 -0.301,-2.702 c 0,0 -4.204,-3.603 -4.804,-4.805 -0.602,-1.201 -6.006,-4.804 -7.507,-5.405 -1.502,-0.601 -7.808,-1.802 -10.511,-1.502 -2.704,0.301 -9.61,2.402 -11.112,3.304 -1.501,0.9 -7.805,4.504 -9.609,5.104 -1.801,0.601 -9.309,5.106 -10.511,6.006 -1.199,0.902 -8.107,5.106 -10.208,7.206 -2.102,2.103 -5.406,7.209 -6.908,9.31 C 7.506,-8.107 4.202,-6.006 3.302,-4.803 2.401,-3.603 0,-0.301 0,0"
       style="fill:#000000;fill-opacity:1;fill-rule:nonzero;stroke:none"
       id="path3097"
       inkscape:connector-curvature="0" /></g><g
     id="g3099"
     transform="translate(334.7861,341.9556)"><path
       d="M 0,0 10.81,5.706 16.214,-0.9 27.326,-12.012 39.037,-22.823 c 0,0 10.511,-5.405 12.313,-7.207 1.8,-1.802 14.713,-8.106 17.118,-8.708 2.401,-0.601 12.912,-5.106 15.012,-6.306 2.103,-1.201 7.808,1.2 8.41,0 0.599,-1.201 -2.404,-10.511 -2.404,-10.511 0,0 -1.502,-7.207 -4.505,-8.107 -3.002,-0.901 -10.209,-3.904 -10.209,-3.904 H 57.055 c -1.201,0 -6.908,2.704 -8.409,3.604 -1.502,0.9 -7.506,6.906 -9.007,7.507 -1.502,0.6 -5.705,6.605 -8.708,9.909 -3.003,3.304 -8.711,11.413 -9.911,12.313 -1.202,0.9 -6.606,7.507 -9.91,10.811 -3.303,3.301 -6.908,9.909 -8.107,10.809 -1.202,0.902 -2.403,2.404 -2.403,2.404 z"
       style="fill:#000000;fill-opacity:1;fill-rule:nonzero;stroke:none"
       id="path3101"
       inkscape:connector-curvature="0" /></g><g
     id="g3103"
     transform="translate(331.7832,324.8379)"><path
       d="m 0,0 2.701,2.704 c 0,0 17.418,-21.622 18.319,-22.823 0.901,-1.2 10.509,-14.114 10.509,-14.114 0,0 8.11,-7.207 9.911,-8.708 1.801,-1.502 8.706,-9.309 10.208,-10.21 1.502,-0.9 10.511,-4.806 10.511,-4.806 0,0 9.312,-3.602 10.813,-4.803 1.502,-1.202 15.313,-2.704 15.313,-2.704 0,0 -3.304,-4.502 -4.805,-5.404 -1.501,-0.901 -15.013,-2.703 -15.013,-2.703 0,0 -19.821,6.307 -21.021,6.307 -1.202,0 -9.008,9.608 -9.008,9.608 0,0 -7.808,9.911 -9.009,10.811 -1.202,0.901 -8.109,11.411 -8.109,11.411 0,0 -7.207,12.012 -8.408,12.913 -1.202,0.901 -5.404,8.408 -6.307,9.91 C 5.704,-11.11 0,-1.501 0,0"
       style="fill:#000000;fill-opacity:1;fill-rule:nonzero;stroke:none"
       id="path3105"
       inkscape:connector-curvature="0" /></g><g
     id="g3107"
     transform="translate(318.2705,325.1387)"><path
       d="m 0,0 10.809,0.902 c 0,0 6.306,-14.115 6.306,-15.616 0,-1.502 11.111,-21.322 11.413,-22.522 0.299,-1.201 10.809,-17.417 11.709,-19.52 0.903,-2.1 12.313,-15.915 13.215,-17.116 0.9,-1.2 9.609,-8.708 9.609,-8.708 0,0 9.91,-10.21 11.109,-11.111 1.203,-0.901 9.311,-5.104 9.311,-5.104 l 7.807,-5.105 -2.703,-6.006 -8.106,-7.508 c 0,0 -12.614,-0.601 -14.115,-0.601 -1.502,0 -11.112,1.202 -12.613,2.402 -1.502,1.202 -6.305,5.707 -9.608,8.407 -3.304,2.705 -10.511,10.512 -11.712,12.314 -1.202,1.802 -7.208,10.811 -8.408,12.912 -1.202,2.103 -6.908,16.215 -6.908,16.215 l -6.907,17.118 -6.605,14.414 -4.205,16.516 -0.3,8.708 z"
       style="fill:#000000;fill-opacity:1;fill-rule:nonzero;stroke:none"
       id="path3109"
       inkscape:connector-curvature="0" /></g><g
     id="g3111"
     transform="translate(309.2612,308.3237)"><path
       d="m 0,0 h 4.202 c 0,0 7.209,-24.625 7.507,-25.826 0.303,-1.201 5.106,-12.613 5.106,-14.414 0,-1.802 6.906,-13.814 7.809,-15.916 0.901,-2.101 5.705,-10.511 6.005,-12.612 0.301,-2.103 4.204,-10.811 4.204,-10.811 l -12.012,10.21 c 0,0 -5.705,4.805 -6.905,8.708 -1.204,3.905 -6.007,14.115 -6.007,14.115 0,0 -5.106,18.018 -5.106,19.218 0,1.201 -2.702,11.11 -2.702,13.514 C 2.101,-11.413 0.6,0.599 0,0"
       style="fill:#000000;fill-opacity:1;fill-rule:nonzero;stroke:none"
       id="path3113"
       inkscape:connector-curvature="0" /></g><g
     id="g3115"
     transform="translate(285.2378,302.6162)"><path
       d="m 0,0 h 8.407 l 0.901,4.505 4.805,6.006 3.604,1.202 c 0,0 1.501,-8.109 1.802,-10.811 0.299,-2.702 0.9,-11.111 0.9,-12.312 0,-1.201 2.703,-12.012 2.703,-13.814 0,-1.8 4.203,-12.012 6.005,-14.714 1.802,-2.703 3.603,-8.107 4.205,-9.609 0.6,-1.501 2.704,-4.805 2.704,-4.805 l -7.209,-2.702 c 0,0 -9.308,5.104 -9.909,6.306 -0.602,1.201 -6.607,10.509 -6.607,12.01 0,1.502 -3.904,13.215 -3.904,13.215 0,0 -3.003,13.511 -4.504,14.413 C 2.401,-10.209 0,-0.599 0,0"
       style="fill:#000000;fill-opacity:1;fill-rule:nonzero;stroke:none"
       id="path3117"
       inkscape:connector-curvature="0" /></g><g
     id="g3119"
     transform="translate(110.3579,452.3628)"><path
       d="m 0,0 -21.24,-1.169 -19.757,5.247 -14.509,8.835 -18.003,14.21 3.051,-20.137 9.657,-16.816 10.81,-6.006 23.424,-5.406 18.618,-0.6 11.41,0.301 10.811,9.608 z"
       style="fill:#000000;fill-opacity:1;fill-rule:nonzero;stroke:none"
       id="path3121"
       inkscape:connector-curvature="0" /></g><g
     id="g3123"
     transform="translate(41.8994,445.835)"><path
       d="m 0,0 6.006,-6.006 c 0,0 11.711,-5.405 12.912,-6.004 1.202,-0.601 14.715,-3.905 14.715,-3.905 l 15.616,-0.6 17.716,-1.501 -1.2,-2.404 -12.614,-2.101 -26.425,0.9 -12.012,1.502 -9.308,4.805 -4.805,6.305 z"
       style="fill:#000000;fill-opacity:1;fill-rule:nonzero;stroke:none"
       id="path3125"
       inkscape:connector-curvature="0" /></g><g
     id="g3127"
     transform="translate(121.6064,415.5264)"><path
       d="m 0,0 -9.609,8.41 -8.409,-2.703 -20.42,-0.902 -14.114,0.301 -7.807,1.501 -13.213,5.106 -1.201,-7.208 2.101,-6.906 9.91,-6.307 7.508,-2.702 16.816,-0.6 23.423,-0.301 c 0,0 6.606,3.302 8.108,3.904 1.501,0.601 4.204,2.702 4.204,2.702 z"
       style="fill:#000000;fill-opacity:1;fill-rule:nonzero;stroke:none"
       id="path3129"
       inkscape:connector-curvature="0" /></g><g
     id="g3131"
     transform="translate(111.3955,399.9121)"><path
       d="m 0,0 h -13.813 l -27.027,-0.301 -8.407,3.003 -9.609,3.605 -5.707,5.404 0.601,-8.107 c 0,0 2.703,-4.504 4.204,-5.406 1.502,-0.9 11.111,-4.204 11.111,-4.204 l 36.936,-0.301 11.111,-0.3 2.402,2.103 z"
       style="fill:#000000;fill-opacity:1;fill-rule:nonzero;stroke:none"
       id="path3133"
       inkscape:connector-curvature="0" /></g><g
     id="g3135"
     transform="translate(119.5044,391.5049)"><path
       d="m 0,0 -4.504,0.9 -5.106,-1.802 -16.216,-0.6 h -30.93 l -8.408,2.703 -4.804,1.501 h -3.905 c 0,0 -0.9,-5.406 -0.9,-7.507 0,-2.103 3.002,-8.109 3.002,-8.109 l 10.21,-5.405 11.111,-2.401 15.916,-0.301 16.816,2.402 10.51,4.203 8.108,6.006 z"
       style="fill:#000000;fill-opacity:1;fill-rule:nonzero;stroke:none"
       id="path3137"
       inkscape:connector-curvature="0" /></g><g
     id="g3139"
     transform="translate(111.3955,371.3838)"><path
       d="m 0,0 -16.816,-5.104 h -7.807 l -12.012,-0.902 -11.712,2.703 -14.414,4.504 c 0,0 0,-2.702 0.3,-4.803 0.301,-2.103 3.003,-6.307 4.205,-6.908 1.201,-0.599 9.009,-1.803 10.51,-2.402 1.502,-0.601 12.011,-0.601 14.414,-0.3 2.402,0.3 12.612,2.401 14.714,3.003 2.103,0.601 11.712,5.105 11.712,5.105 L 0,-2.101 Z"
       style="fill:#000000;fill-opacity:1;fill-rule:nonzero;stroke:none"
       id="path3141"
       inkscape:connector-curvature="0" /></g><g
     id="g3143"
     transform="translate(125.5103,368.6816)"><path
       d="m 0,0 -7.507,0.602 -6.006,-2.705 -15.615,-7.507 -12.313,-4.204 -28.527,-0.6 -6.608,2.402 v -5.705 c 0,0 1.202,-7.808 1.803,-9.009 0.6,-1.201 4.805,-6.906 4.805,-6.906 0,0 2.702,-3.905 4.203,-4.505 1.502,-0.601 5.406,-1.501 7.508,-1.501 2.102,0 7.207,0.9 9.609,0.9 2.403,0 12.012,2.103 12.012,2.103 l 12.012,4.204 c 0,0 5.705,5.104 7.807,6.906 2.102,1.802 5.405,4.204 6.907,5.106 1.502,0.9 5.105,6.605 6.306,6.906 1.202,0.3 6.006,5.106 6.006,5.106"
       style="fill:#000000;fill-opacity:1;fill-rule:nonzero;stroke:none"
       id="path3145"
       inkscape:connector-curvature="0" /></g><g
     id="g3147"
     transform="translate(128.5122,350.3633)"><path
       d="m 0,0 -2.102,1.501 c 0,0 -9.909,-6.304 -10.21,-7.507 -0.3,-1.201 -14.713,-10.21 -14.713,-10.21 0,0 -9.61,-4.805 -11.111,-6.306 -1.502,-1.502 -12.012,-5.104 -12.012,-5.104 0,0 -5.406,-1.502 -6.606,-1.802 -1.203,-0.301 -16.818,0 -16.818,0 l -6.906,2.702 0.3,-2.702 c 0,0 4.205,-3.603 4.805,-4.805 0.601,-1.201 6.006,-4.804 7.508,-5.405 1.501,-0.601 7.807,-1.802 10.51,-1.502 2.702,0.301 9.609,2.402 11.111,3.304 1.501,0.9 7.807,4.504 9.609,5.104 1.802,0.601 9.309,5.106 10.51,6.006 1.201,0.902 8.108,5.106 10.21,7.206 2.102,2.103 5.406,7.209 6.907,9.31 1.502,2.103 4.804,4.204 5.706,5.407 C -2.401,-3.603 0,-0.301 0,0"
       style="fill:#000000;fill-opacity:1;fill-rule:nonzero;stroke:none"
       id="path3149"
       inkscape:connector-curvature="0" /></g><g
     id="g3151"
     transform="translate(142.0259,341.9556)"><path
       d="M 0,0 -10.81,5.706 -16.216,-0.9 -27.327,-12.012 -39.038,-22.823 c 0,0 -10.51,-5.405 -12.312,-7.207 -1.801,-1.802 -14.714,-8.106 -17.117,-8.708 -2.402,-0.601 -12.912,-5.106 -15.014,-6.306 -2.102,-1.201 -7.808,1.2 -8.409,0 -0.6,-1.201 2.403,-10.511 2.403,-10.511 0,0 1.502,-7.207 4.505,-8.107 3.003,-0.901 10.209,-3.904 10.209,-3.904 h 17.717 c 1.201,0 6.908,2.704 8.409,3.604 1.501,0.9 7.506,6.906 9.008,7.507 1.501,0.6 5.706,6.605 8.709,9.909 3.003,3.304 8.708,11.413 9.91,12.313 1.201,0.9 6.606,7.507 9.909,10.811 3.304,3.301 6.907,9.909 8.108,10.809 1.202,0.902 2.402,2.404 2.402,2.404 z"
       style="fill:#000000;fill-opacity:1;fill-rule:nonzero;stroke:none"
       id="path3153"
       inkscape:connector-curvature="0" /></g><g
     id="g3155"
     transform="translate(145.0288,324.8379)"><path
       d="m 0,0 -2.703,2.704 c 0,0 -17.417,-21.622 -18.317,-22.823 -0.901,-1.2 -10.51,-14.114 -10.51,-14.114 0,0 -8.109,-7.207 -9.91,-8.708 -1.803,-1.502 -8.708,-9.309 -10.21,-10.21 -1.501,-0.9 -10.511,-4.806 -10.511,-4.806 0,0 -9.309,-3.602 -10.81,-4.803 -1.502,-1.202 -15.315,-2.704 -15.315,-2.704 0,0 3.304,-4.502 4.805,-5.404 1.502,-0.901 15.014,-2.703 15.014,-2.703 0,0 19.82,6.307 21.021,6.307 1.2,0 9.008,9.608 9.008,9.608 0,0 7.808,9.911 9.01,10.811 1.2,0.901 8.107,11.411 8.107,11.411 0,0 7.207,12.012 8.409,12.913 1.201,0.901 5.405,8.408 6.306,9.91 C -5.706,-11.11 0,-1.501 0,0"
       style="fill:#000000;fill-opacity:1;fill-rule:nonzero;stroke:none"
       id="path3157"
       inkscape:connector-curvature="0" /></g><g
     id="g3159"
     transform="translate(158.542,325.1387)"><path
       d="m 0,0 -10.81,0.902 c 0,0 -6.307,-14.115 -6.307,-15.616 0,-1.502 -11.111,-21.322 -11.411,-22.522 -0.3,-1.201 -10.81,-17.417 -11.711,-19.52 -0.902,-2.1 -12.312,-15.915 -13.213,-17.116 -0.901,-1.2 -9.61,-8.708 -9.61,-8.708 0,0 -9.909,-10.21 -11.11,-11.111 -1.202,-0.901 -9.309,-5.104 -9.309,-5.104 l -7.808,-5.105 2.703,-6.006 8.107,-7.508 c 0,0 12.613,-0.601 14.114,-0.601 1.502,0 11.111,1.202 12.613,2.402 1.501,1.202 6.306,5.707 9.608,8.407 3.304,2.705 10.511,10.512 11.713,12.314 1.201,1.802 7.206,10.811 8.408,12.912 1.201,2.103 6.906,16.215 6.906,16.215 l 6.908,17.118 6.605,14.414 4.205,16.516 0.3,8.708 z"
       style="fill:#000000;fill-opacity:1;fill-rule:nonzero;stroke:none"
       id="path3161"
       inkscape:connector-curvature="0" /></g><g
     id="g3163"
     transform="translate(167.5508,308.3237)"><path
       d="m 0,0 h -4.204 c 0,0 -7.207,-24.625 -7.507,-25.826 -0.301,-1.201 -5.105,-12.613 -5.105,-14.414 0,-1.802 -6.907,-13.814 -7.808,-15.916 -0.901,-2.101 -5.705,-10.511 -6.006,-12.612 -0.3,-2.103 -4.203,-10.811 -4.203,-10.811 l 12.011,10.21 c 0,0 5.705,4.805 6.906,8.708 1.202,3.905 6.006,14.115 6.006,14.115 0,0 5.105,18.018 5.105,19.218 0,1.201 2.703,11.11 2.703,13.514 C -2.102,-11.413 -0.6,0.599 0,0"
       style="fill:#000000;fill-opacity:1;fill-rule:nonzero;stroke:none"
       id="path3165"
       inkscape:connector-curvature="0" /></g><g
     id="g3167"
     transform="translate(191.5737,302.6162)"><path
       d="m 0,0 h -8.408 l -0.9,4.505 -4.805,6.006 -3.604,1.202 c 0,0 -1.502,-8.109 -1.801,-10.811 -0.301,-2.702 -0.901,-11.111 -0.901,-12.312 0,-1.201 -2.703,-12.012 -2.703,-13.814 0,-1.8 -4.204,-12.012 -6.005,-14.714 -1.803,-2.703 -3.604,-8.107 -4.206,-9.609 -0.6,-1.501 -2.702,-4.805 -2.702,-4.805 l 7.207,-2.702 c 0,0 9.31,5.104 9.91,6.306 0.601,1.201 6.607,10.509 6.607,12.01 0,1.502 3.903,13.215 3.903,13.215 0,0 3.003,13.511 4.505,14.413 C -2.401,-10.209 0,-0.599 0,0"
       style="fill:#000000;fill-opacity:1;fill-rule:nonzero;stroke:none"
       id="path3169"
       inkscape:connector-curvature="0" /></g><g
     id="g3171"
     transform="translate(41.8994,445.835)"><path
       d="m 0,0 6.006,-6.006 c 0,0 11.711,-5.405 12.912,-6.004 1.202,-0.601 14.715,-3.905 14.715,-3.905 l 15.616,-0.6 17.716,-1.501 -1.2,-2.404 -12.614,-2.101 -26.425,0.9 -12.012,1.502 -9.308,4.805 -4.805,6.305 z"
       style="fill:#000000;fill-opacity:1;fill-rule:nonzero;stroke:none"
       id="path3173"
       inkscape:connector-curvature="0" /></g><g
     id="g3175"
     transform="translate(121.6064,415.5264)"><path
       d="m 0,0 -9.609,8.41 -8.409,-2.703 -20.42,-0.902 -14.114,0.301 -7.807,1.501 -13.213,5.106 -1.201,-7.208 2.101,-6.906 9.91,-6.307 7.508,-2.702 16.816,-0.6 23.423,-0.301 c 0,0 6.606,3.302 8.108,3.904 1.501,0.601 4.204,2.702 4.204,2.702 z"
       style="fill:#000000;fill-opacity:1;fill-rule:nonzero;stroke:none"
       id="path3177"
       inkscape:connector-curvature="0" /></g><g
     id="g3179"
     transform="translate(111.3955,399.9121)"><path
       d="m 0,0 h -13.813 l -27.027,-0.301 -8.407,3.003 -9.609,3.605 -5.707,5.404 0.601,-8.107 c 0,0 2.703,-4.504 4.204,-5.406 1.502,-0.9 11.111,-4.204 11.111,-4.204 l 36.936,-0.301 11.111,-0.3 2.402,2.103 z"
       style="fill:#000000;fill-opacity:1;fill-rule:nonzero;stroke:none"
       id="path3181"
       inkscape:connector-curvature="0" /></g><g
     id="g3183"
     transform="translate(119.5044,391.5049)"><path
       d="m 0,0 -4.504,0.9 -5.106,-1.802 -16.216,-0.6 h -30.93 l -8.408,2.703 -4.804,1.501 h -3.905 c 0,0 -0.9,-5.406 -0.9,-7.507 0,-2.103 3.002,-8.109 3.002,-8.109 l 10.21,-5.405 11.111,-2.401 15.916,-0.301 16.816,2.402 10.51,4.203 8.108,6.006 z"
       style="fill:#000000;fill-opacity:1;fill-rule:nonzero;stroke:none"
       id="path3185"
       inkscape:connector-curvature="0" /></g><g
     id="g3187"
     transform="translate(111.3955,371.3838)"><path
       d="m 0,0 -16.816,-5.104 h -7.807 l -12.012,-0.902 -11.712,2.703 -14.414,4.504 c 0,0 0,-2.702 0.3,-4.803 0.301,-2.103 3.003,-6.307 4.205,-6.908 1.201,-0.599 9.009,-1.803 10.51,-2.402 1.502,-0.601 12.011,-0.601 14.414,-0.3 2.402,0.3 12.612,2.401 14.714,3.003 2.103,0.601 11.712,5.105 11.712,5.105 L 0,-2.101 Z"
       style="fill:#000000;fill-opacity:1;fill-rule:nonzero;stroke:none"
       id="path3189"
       inkscape:connector-curvature="0" /></g><g
     id="g3191"
     transform="translate(125.5103,368.6816)"><path
       d="m 0,0 -7.507,0.602 -6.006,-2.705 -15.615,-7.507 -12.313,-4.204 -28.527,-0.6 -6.608,2.402 v -5.705 c 0,0 1.202,-7.808 1.803,-9.009 0.6,-1.201 4.805,-6.906 4.805,-6.906 0,0 2.702,-3.905 4.203,-4.505 1.502,-0.601 5.406,-1.501 7.508,-1.501 2.102,0 7.207,0.9 9.609,0.9 2.403,0 12.012,2.103 12.012,2.103 l 12.012,4.204 c 0,0 5.705,5.104 7.807,6.906 2.102,1.802 5.405,4.204 6.907,5.106 1.502,0.9 5.105,6.605 6.306,6.906 1.202,0.3 6.006,5.106 6.006,5.106"
       style="fill:#000000;fill-opacity:1;fill-rule:nonzero;stroke:none"
       id="path3193"
       inkscape:connector-curvature="0" /></g><g
     id="g3195"
     transform="translate(128.5122,350.3633)"><path
       d="m 0,0 -2.102,1.501 c 0,0 -9.909,-6.304 -10.21,-7.507 -0.3,-1.201 -14.713,-10.21 -14.713,-10.21 0,0 -9.61,-4.805 -11.111,-6.306 -1.502,-1.502 -12.012,-5.104 -12.012,-5.104 0,0 -5.406,-1.502 -6.606,-1.802 -1.203,-0.301 -16.818,0 -16.818,0 l -6.906,2.702 0.3,-2.702 c 0,0 4.205,-3.603 4.805,-4.805 0.601,-1.201 6.006,-4.804 7.508,-5.405 1.501,-0.601 7.807,-1.802 10.51,-1.502 2.702,0.301 9.609,2.402 11.111,3.304 1.501,0.9 7.807,4.504 9.609,5.104 1.802,0.601 9.309,5.106 10.51,6.006 1.201,0.902 8.108,5.106 10.21,7.206 2.102,2.103 5.406,7.209 6.907,9.31 1.502,2.103 4.804,4.204 5.706,5.407 C -2.401,-3.603 0,-0.301 0,0"
       style="fill:#000000;fill-opacity:1;fill-rule:nonzero;stroke:none"
       id="path3197"
       inkscape:connector-curvature="0" /></g><g
     id="g3199"
     transform="translate(142.0259,341.9556)"><path
       d="M 0,0 -10.81,5.706 -16.216,-0.9 -27.327,-12.012 -39.038,-22.823 c 0,0 -10.51,-5.405 -12.312,-7.207 -1.801,-1.802 -14.714,-8.106 -17.117,-8.708 -2.402,-0.601 -12.912,-5.106 -15.014,-6.306 -2.102,-1.201 -7.808,1.2 -8.409,0 -0.6,-1.201 2.403,-10.511 2.403,-10.511 0,0 1.502,-7.207 4.505,-8.107 3.003,-0.901 10.209,-3.904 10.209,-3.904 h 17.717 c 1.201,0 6.908,2.704 8.409,3.604 1.501,0.9 7.506,6.906 9.008,7.507 1.501,0.6 5.706,6.605 8.709,9.909 3.003,3.304 8.708,11.413 9.91,12.313 1.201,0.9 6.606,7.507 9.909,10.811 3.304,3.301 6.907,9.909 8.108,10.809 1.202,0.902 2.402,2.404 2.402,2.404 z"
       style="fill:#000000;fill-opacity:1;fill-rule:nonzero;stroke:none"
       id="path3201"
       inkscape:connector-curvature="0" /></g><g
     id="g3203"
     transform="translate(145.0288,324.8379)"><path
       d="m 0,0 -2.703,2.704 c 0,0 -17.417,-21.622 -18.317,-22.823 -0.901,-1.2 -10.51,-14.114 -10.51,-14.114 0,0 -8.109,-7.207 -9.91,-8.708 -1.803,-1.502 -8.708,-9.309 -10.21,-10.21 -1.501,-0.9 -10.511,-4.806 -10.511,-4.806 0,0 -9.309,-3.602 -10.81,-4.803 -1.502,-1.202 -15.315,-2.704 -15.315,-2.704 0,0 3.304,-4.502 4.805,-5.404 1.502,-0.901 15.014,-2.703 15.014,-2.703 0,0 19.82,6.307 21.021,6.307 1.2,0 9.008,9.608 9.008,9.608 0,0 7.808,9.911 9.01,10.811 1.2,0.901 8.107,11.411 8.107,11.411 0,0 7.207,12.012 8.409,12.913 1.201,0.901 5.405,8.408 6.306,9.91 C -5.706,-11.11 0,-1.501 0,0"
       style="fill:#000000;fill-opacity:1;fill-rule:nonzero;stroke:none"
       id="path3205"
       inkscape:connector-curvature="0" /></g><g
     id="g3207"
     transform="translate(158.542,325.1387)"><path
       d="m 0,0 -10.81,0.902 c 0,0 -6.307,-14.115 -6.307,-15.616 0,-1.502 -11.111,-21.322 -11.411,-22.522 -0.3,-1.201 -10.81,-17.417 -11.711,-19.52 -0.902,-2.1 -12.312,-15.915 -13.213,-17.116 -0.901,-1.2 -9.61,-8.708 -9.61,-8.708 0,0 -9.909,-10.21 -11.11,-11.111 -1.202,-0.901 -9.309,-5.104 -9.309,-5.104 l -7.808,-5.105 2.703,-6.006 8.107,-7.508 c 0,0 12.613,-0.601 14.114,-0.601 1.502,0 11.111,1.202 12.613,2.402 1.501,1.202 6.306,5.707 9.608,8.407 3.304,2.705 10.511,10.512 11.713,12.314 1.201,1.802 7.206,10.811 8.408,12.912 1.201,2.103 6.906,16.215 6.906,16.215 l 6.908,17.118 6.605,14.414 4.205,16.516 0.3,8.708 z"
       style="fill:#000000;fill-opacity:1;fill-rule:nonzero;stroke:none"
       id="path3209"
       inkscape:connector-curvature="0" /></g><g
     id="g3211"
     transform="translate(167.5508,308.3237)"><path
       d="m 0,0 h -4.204 c 0,0 -7.207,-24.625 -7.507,-25.826 -0.301,-1.201 -5.105,-12.613 -5.105,-14.414 0,-1.802 -6.907,-13.814 -7.808,-15.916 -0.901,-2.101 -5.705,-10.511 -6.006,-12.612 -0.3,-2.103 -4.203,-10.811 -4.203,-10.811 l 12.011,10.21 c 0,0 5.705,4.805 6.906,8.708 1.202,3.905 6.006,14.115 6.006,14.115 0,0 5.105,18.018 5.105,19.218 0,1.201 2.703,11.11 2.703,13.514 C -2.102,-11.413 -0.6,0.599 0,0"
       style="fill:#000000;fill-opacity:1;fill-rule:nonzero;stroke:none"
       id="path3213"
       inkscape:connector-curvature="0" /></g><g
     id="g3215"
     transform="translate(191.5737,302.6162)"><path
       d="m 0,0 h -8.408 l -0.9,4.505 -4.805,6.006 -3.604,1.202 c 0,0 -1.502,-8.109 -1.801,-10.811 -0.301,-2.702 -0.901,-11.111 -0.901,-12.312 0,-1.201 -2.703,-12.012 -2.703,-13.814 0,-1.8 -4.204,-12.012 -6.005,-14.714 -1.803,-2.703 -3.604,-8.107 -4.206,-9.609 -0.6,-1.501 -2.702,-4.805 -2.702,-4.805 l 7.207,-2.702 c 0,0 9.31,5.104 9.91,6.306 0.601,1.201 6.607,10.509 6.607,12.01 0,1.502 3.903,13.215 3.903,13.215 0,0 3.003,13.511 4.505,14.413 C -2.401,-10.209 0,-0.599 0,0"
       style="fill:#000000;fill-opacity:1;fill-rule:nonzero;stroke:none"
       id="path3217"
       inkscape:connector-curvature="0" /></g><g
     id="g3219"
     transform="translate(123.3594,470.9995)"><path
       d="m 0,0 c 2.013,0.017 1.721,-3.701 3.057,-5.206 1.178,-1.33 2.783,-2.213 4.241,-3.23 3.095,-2.157 5.843,-5.281 9.15,-4.499 l 13.378,3.161 12.13,-0.867 12.129,-6.932 2.601,-14.728 -4.333,-15.596 -8.664,-16.463 -1.733,-11.263 2.599,-6.065 14.73,-8.664 11.265,-5.2 5.198,-9.531 6.065,-1.732 6.064,5.198 2.6,7.799 0.867,6.065 -6.067,-3.466 h -8.662 l -5.2,3.466 5.2,2.599 4.331,5.198 2.45,7.229 4.563,3.862 7.373,1.755 7.022,3.862 3.86,7.373 -4.915,4.914 -6.318,3.862 -8.074,-1.053 -7.374,-2.106 v 2.106 l 6.319,4.914 4.564,3.512 5.969,2.457 -1.053,1.404 -4.564,0.35 -7.723,-3.157 -5.267,-3.161 -5.966,-1.053 -4.564,2.457 c -1.406,1.638 -2.811,3.276 -4.213,4.914 -0.587,1.64 -1.171,3.278 -1.756,4.916 0.789,3.658 1.579,7.316 2.37,10.974 0.789,-1.699 1.581,-3.396 2.371,-5.093 l 2.501,-2.721 2.938,-2.457 3.861,-0.353 2.458,0.353 4.214,2.106 4.915,2.107 4.914,-0.353 8.076,-2.106 -0.705,2.106 -8.424,4.564 -5.266,1.406 -6.67,-1.756 -5.969,-4.564 -1.051,1.053 -1.406,9.479 4.213,5.968 5.616,5.266 5.617,1.405 7.725,-1.054 7.021,-3.159 h 2.457 l 2.457,2.808 4.213,3.511 7.725,1.404 4.914,-1.404 6.67,-5.266 3.862,-3.511 h 9.83 l 3.16,3.159 2.106,2.458 3.861,1.054 c 0,0 3.51,-0.703 3.862,-2.458 0.351,-1.755 2.105,-4.564 2.105,-4.564 l -0.701,-11.235 -3.862,-7.021 v -2.456 l 5.618,-8.777 v -11.586 l 4.563,-1.403 2.107,4.213 2.808,-6.672 -2.457,-5.617 -9.83,-9.127 -3.16,-7.373 -0.701,-3.862 6.32,-1.054 v -6.317 l -3.512,-5.969 -7.371,-4.914 -3.162,-2.809 4.916,-8.777 7.723,-1.053 2.107,5.967 4.914,5.266 7.022,5.267 8.776,5.969 2.107,2.807 -0.353,11.235 -3.86,11.234 -5.267,10.883 -3.157,6.67 -1.055,14.746 2.809,8.776 5.266,6.319 5.264,4.212 5.97,2.107 c 0,0 17.807,0.362 26.682,1.053 3.904,0.304 8.162,-0.381 11.67,1.359 3.496,1.732 4.497,9.882 8.118,8.428 4.764,-1.912 1.339,-10.435 0.046,-15.404 -0.812,-3.118 -4.739,-8.425 -4.739,-8.425 l -6.671,-7.372 c 0,0 3.162,-3.863 5.619,-5.969 2.456,-2.107 7.019,-5.968 7.019,-5.968 l -7.019,-8.426 -2.457,-5.266 3.86,-7.723 7.023,-4.564 -7.726,-7.723 -3.86,-7.022 2.809,-5.617 c 0,0 2.107,-2.809 3.51,-3.51 1.403,-0.703 4.563,-5.618 4.563,-5.618 l -9.479,-0.351 -7.37,-3.16 -4.214,-6.32 7.722,-7.723 -16.148,-8.424 -2.106,-5.266 1.053,-11.586 -13.341,-1.403 -5.265,-2.107 -1.055,-14.043 -8.777,3.861 -4.914,0.703 -4.213,-6.67 -5.969,-4.564 -9.127,2.107 h -3.51 l -0.352,-6.32 -3.158,-8.075 15.446,-24.574 4.564,-9.128 c 0,0 1.405,-10.884 1.053,-13.34 -0.35,-2.457 1.756,-8.427 1.756,-8.427 l 3.86,-8.425 4.916,-3.861 c 0,0 7.023,-1.757 8.425,-2.809 1.405,-1.054 5.268,1.756 5.268,0 0,-1.756 -0.353,-6.319 -0.353,-6.319 l -4.211,-3.862 c 0,0 -5.388,0.973 -8.075,0.7 -2.162,-0.217 -4.424,-0.671 -6.25,-1.848 -1.531,-0.981 -2.905,-2.428 -3.58,-4.117 -0.957,-2.394 -0.352,-7.725 -0.352,-7.725 l -12.99,-6.319 -5.615,-2.107 -1.055,24.927 -2.807,7.722 -6.32,4.214 c 0,0 -0.701,3.51 -2.106,2.457 -1.404,-1.053 -3.863,-5.267 -3.863,-5.267 l -3.861,-10.531 1.054,-24.574 1.403,-5.618 3.511,-2.807 9.129,2.807 7.723,1.756 7.723,-2.457 3.51,-5.268 2.107,-7.371 -3.51,-2.807 -6.32,0.7 -3.51,-3.862 -1.054,-5.265 -2.809,-5.618 -5.967,-3.509 -4.213,-0.35 1.754,-5.268 9.129,-7.021 5.266,-2.106 0.701,15.797 8.075,-7.371 5.618,-7.02 0.352,-9.832 v -5.619 l 4.914,-2.807 3.512,-6.32 3.86,-6.319 1.054,-10.178 -3.863,-11.588 c 0,0 -8.426,8.075 -8.426,9.481 0,1.402 -2.457,6.67 -2.457,6.67 l -7.371,2.457 0.351,-7.725 4.914,-5.265 4.213,-7.724 c 0,0 -8.074,2.457 -9.83,3.161 -1.754,0.701 -10.531,1.756 -10.531,1.756 0,0 -5.969,8.777 -7.374,10.178 -1.402,1.406 -5.265,5.619 -5.265,7.375 v 9.478 c 0,2.457 -3.159,10.181 -3.159,10.181 l -6.672,9.127 -0.701,-10.882 0.35,-12.639 4.213,-10.183 c 0,0 3.512,-5.264 4.916,-5.965 1.404,-0.705 9.479,-3.863 9.479,-3.863 l 1.755,-5.618 -4.916,-5.265 -8.777,-1.755 -6.319,0.35 -0.701,-6.319 -6.32,-10.179 -6.67,-5.269 -10.532,11.584 -2.107,6.674 v 3.86 l -8.073,-1.052 -6.67,2.457 -6.672,8.426 10.883,4.914 5.618,4.213 2.808,5.969 2.106,5.615 0.353,25.629 -3.863,-5.97 -4.563,-8.777 -2.81,-8.421 -1.051,-9.131 -5.969,-7.371 -6.67,-5.619 -6.32,-1.752 -7.372,-2.811 -4.212,-0.351 3.861,7.021 v 1.405 l 3.51,3.513 1.756,5.965 -3.16,2.811 -4.212,-4.563 -3.861,-4.568 -0.705,-4.563 -7.02,-6.67 c 0,0 -2.457,5.969 -2.106,8.426 0.351,2.457 0.351,4.563 0.351,7.02 0,2.457 -0.702,4.918 0,6.32 0.702,1.406 2.106,4.563 2.808,7.024 0.703,2.457 1.756,4.564 1.756,4.564 l 7.373,5.264 1.404,8.426 -1.404,5.619 3.861,5.614 8.073,5.268 0.352,-9.831 c 0,0 0.353,-2.808 2.107,-3.158 1.754,-0.354 2.457,-0.704 3.861,-0.354 1.405,0.354 3.862,3.161 5.268,4.567 1.402,1.402 3.508,4.21 3.508,4.21 l 3.863,5.618 -3.51,2.457 -7.023,2.807 c 0,0 -4.213,2.811 -4.213,5.268 0,2.457 -2.457,9.127 -2.457,9.127 h -6.319 -4.214 l -0.35,5.97 4.213,6.67 5.97,4.212 9.126,0.702 6.32,-1.403 3.51,-3.161 3.861,3.862 2.458,10.533 0.353,18.604 -3.512,10.181 -3.863,4.214 -6.669,-7.724 -5.618,-7.722 -0.35,-16.852 -0.352,-6.32 c 0,0 -10.398,1.675 -12.99,5.619 -0.962,1.464 0.384,3.552 0,5.264 -0.48,2.147 -1.114,4.568 -2.807,5.97 -1.162,0.959 -2.878,1.279 -4.377,1.125 -1.887,-0.2 -3.204,-2.564 -5.102,-2.531 -3.194,0.059 -8.425,4.563 -8.425,4.563 l -8.427,9.832 12.99,4.915 7.372,4.563 3.862,7.023 1.404,19.659 7.373,17.553 6.32,10.18 7.37,8.426 -4.211,14.746 -7.373,-3.863 c 0,0 -5.617,1.054 -6.319,2.457 -0.701,1.406 -5.617,8.076 -5.617,8.076 l -5.266,2.807 -7.021,-4.914 -4.915,0.351 -0.702,10.883 -3.511,3.862 -13.692,1.404 0.702,9.83 -2.106,7.022 -7.372,5.967 -5.968,3.863 2.457,3.86 c 0,0 1.053,3.16 1.053,5.617 0,2.459 -0.351,5.266 -2.106,5.619 -1.756,0.35 -4.564,2.457 -6.319,2.457 h -8.075 l 7.723,7.723 c 0,0 1.054,2.809 1.054,5.266 0,2.457 -1.404,7.723 -1.404,7.723 0,0 -6.319,3.16 -6.671,4.564 -0.351,1.404 -4.212,4.213 -4.212,4.213 l 8.425,5.266 3.16,7.02 -3.16,5.97 -8.075,6.319 8.426,3.861 5.969,6.319 -4.565,7.723 -5.616,8.427 c 0,0 -1.852,5.867 -1.315,8.776 C -4.37,-5.508 -3.38,-0.029 0,0"
       style="fill:#000000;fill-opacity:1;fill-rule:nonzero;stroke:none"
       id="path3221"
       inkscape:connector-curvature="0" /></g><g
     id="g3223"
     transform="translate(172.229,206.6514)"><path
       d="m 0,0 -17.789,-16.494 -16.495,-16.819 h -17.789 l -4.851,4.852 -6.145,4.205 -4.851,-0.97 -4.205,-7.117 h -9.379 l -5.176,-3.556 -3.234,-7.762 -0.324,-8.736 3.235,-6.142 1.94,-2.265 2.588,4.205 3.235,6.467 4.203,1.616 3.882,-0.646 0.647,-3.556 5.175,-0.324 h 6.145 l 3.557,3.88 1.294,1.617 11.968,1.94 3.233,-1.94 -1.293,-4.203 -8.085,-5.5 -9.704,-3.556 -6.469,-2.265 -3.881,-6.792 -1.294,-12.288 1.941,-3.882 14.232,-9.706 1.293,7.765 0.647,5.172 2.587,2.59 5.823,0.647 3.881,2.585 1.94,4.852 -1.94,2.914 -0.648,4.526 7.439,7.117 1.941,-3.56 -0.97,-17.464 0.323,-4.851 7.762,0.644 2.588,-5.496 5.498,-4.206 h 5.175 l 6.469,0.325 -3.235,8.733 -2.91,7.437 3.558,2.91 v 4.206 l -5.823,6.792 -5.174,4.205 -2.265,1.941 -0.323,5.821 4.528,0.646 4.528,-6.142 3.881,-3.881 h 5.499 l 3.235,-0.97 3.557,-2.912 5.176,4.203 4.526,6.47 -2.263,6.792 -3.234,3.236 0.646,4.201 -22.317,0.325 -1.94,3.235 0.324,1.941 27.814,22.64 1.295,4.527 -2.265,5.175 L 9.056,0.97 4.205,0.325 Z"
       style="fill:#000000;fill-opacity:1;fill-rule:nonzero;stroke:none"
       id="path3225"
       inkscape:connector-curvature="0" /></g><g
     id="g3227"
     transform="translate(307.3467,211.7573)"><path
       d="m 0,0 17.789,-16.494 16.496,-16.819 h 17.789 l 4.852,4.851 6.143,4.206 4.852,-0.971 4.206,-7.116 h 9.379 l 5.175,-3.56 3.235,-7.762 0.322,-8.732 -3.233,-6.146 -1.941,-2.262 -2.587,4.202 -3.234,6.471 -4.206,1.616 -3.881,-0.646 -0.645,-3.56 -5.176,-0.32 h -6.147 l -3.555,3.88 -1.295,1.616 -11.968,1.941 -3.233,-1.941 1.293,-4.202 8.086,-5.5 9.703,-3.557 6.469,-2.265 3.882,-6.791 1.291,-12.293 -1.94,-3.881 -14.229,-9.702 -1.295,7.762 -0.646,5.176 -2.59,2.586 -5.821,0.649 -3.881,2.586 -1.94,4.852 1.94,2.91 0.647,4.53 -7.439,7.113 -1.94,-3.556 0.97,-17.465 -0.323,-4.851 -7.764,0.646 -2.586,-5.497 -5.499,-4.205 h -5.173 l -6.469,0.324 3.233,8.732 2.911,7.438 -3.556,2.91 v 4.206 l 5.821,6.791 5.174,4.206 2.263,1.941 0.325,5.821 -4.529,0.646 -4.528,-6.146 -3.881,-3.881 H 1.62 l -3.236,-0.97 -3.556,-2.912 -5.176,4.206 -4.528,6.471 2.263,6.792 3.235,3.232 -0.647,4.205 22.317,0.325 1.94,3.231 -0.324,1.941 -27.814,22.64 -1.293,4.531 2.263,5.175 L -9.055,0.97 -4.202,0.325 0.002,0 Z"
       style="fill:#000000;fill-opacity:1;fill-rule:nonzero;stroke:none"
       id="path3229"
       inkscape:connector-curvature="0" /></g><g
     id="g3231"
     transform="translate(98.2744,122.3809)"><path
       d="m 0,0 c -2.66,3.217 0.021,10.281 1.447,14.203 1.41,3.873 3.475,8.119 7.058,10.163 1.905,1.085 6.558,0.476 6.558,0.476 l 11.15,13.008 7.749,10.178 17.246,19.354 19.63,21.127 c 0,0 -6.766,7.176 -9.555,11.219 -3.101,4.496 -5.429,9.486 -7.889,14.363 -1.812,3.593 -2.723,7.682 -5.056,10.96 -0.567,0.797 -1.83,1.098 -2.114,2.033 -0.725,2.38 -0.607,6.113 1.584,7.29 1.865,1.003 4.361,-0.869 5.921,-2.302 1.405,-1.289 1.989,-3.304 2.522,-5.135 0.356,-1.222 0.068,-2.572 0.421,-3.795 1.298,-4.506 3.43,-8.829 6.126,-12.666 3.094,-4.401 11.29,-11.53 11.29,-11.53 l 48.787,50.05 60.016,58.916 120.63,122.68 c 0,0 21.501,24.834 34.574,34.561 3.843,2.86 15.465,14.526 19.13,11.44 0.798,-4.348 -9.675,-15.924 -12.041,-20.287 -20.223,-32.129 -75.012,-87.212 -75.012,-87.212 L 188.871,185.216 94.513,79.991 c 0,0 4.196,-5.043 6.709,-7.123 1.918,-1.591 4.108,-2.841 6.301,-4.025 4.263,-2.302 8.432,-6.408 13.253,-5.958 0.827,0.073 1.221,1.339 2.048,1.42 1.383,0.14 2.732,-0.801 3.833,-1.653 1.826,-1.405 4.843,-3.216 4.257,-5.445 -0.725,-2.752 -5.043,-3.401 -7.888,-3.265 -1.184,0.056 -2.368,0.767 -3.143,1.664 -0.476,0.553 -0.011,1.955 -0.73,2.059 -6.928,1.014 -7.589,-0.237 -19.868,8.249 -2.446,1.689 -5.052,3.165 -7.358,5.039 -2.402,1.955 -6.696,6.438 -6.696,6.438 L 58.813,49.902 46.973,36.88 36.432,28.03 24.198,17.416 c 0,0 -0.019,-1.501 -0.284,-3.117 -0.294,-1.797 0.627,-2.406 0.082,-4.147 C 22.659,5.884 16.421,1.055 12.101,-0.107 8.292,-1.13 2.515,-3.037 0.001,0 Z"
       style="fill:#000000;fill-opacity:1;fill-rule:nonzero;stroke:none"
       id="path3233"
       inkscape:connector-curvature="0" /></g><g
     id="g3235"
     transform="translate(98.2744,122.3809)"><path
       d="m 0,0 c -2.66,3.217 0.021,10.281 1.447,14.203 1.41,3.873 3.475,8.119 7.058,10.163 1.905,1.085 6.558,0.476 6.558,0.476 l 11.15,13.008 7.749,10.178 17.246,19.354 19.63,21.127 c 0,0 -6.766,7.176 -9.555,11.219 -3.101,4.496 -5.429,9.486 -7.889,14.363 -1.812,3.593 -2.723,7.682 -5.056,10.96 -0.567,0.797 -1.83,1.098 -2.114,2.033 -0.725,2.38 -0.607,6.113 1.584,7.29 1.865,1.003 4.361,-0.869 5.921,-2.302 1.405,-1.289 1.989,-3.304 2.522,-5.135 0.356,-1.222 0.068,-2.572 0.421,-3.795 1.298,-4.506 3.43,-8.829 6.126,-12.666 3.094,-4.401 11.29,-11.53 11.29,-11.53 l 48.787,50.05 60.016,58.916 120.63,122.68 c 0,0 21.501,24.834 34.574,34.561 3.843,2.86 15.465,14.526 19.13,11.44 0.798,-4.348 -9.675,-15.924 -12.041,-20.287 -20.223,-32.129 -75.012,-87.212 -75.012,-87.212 L 188.871,185.216 94.513,79.991 c 0,0 4.196,-5.043 6.709,-7.123 1.918,-1.591 4.108,-2.841 6.301,-4.025 4.263,-2.302 8.432,-6.408 13.253,-5.958 0.827,0.073 1.221,1.339 2.048,1.42 1.383,0.14 2.732,-0.801 3.833,-1.653 1.826,-1.405 4.843,-3.216 4.257,-5.445 -0.725,-2.752 -5.043,-3.401 -7.888,-3.265 -1.184,0.056 -2.368,0.767 -3.143,1.664 -0.476,0.553 -0.011,1.955 -0.73,2.059 -6.928,1.014 -7.589,-0.237 -19.868,8.249 -2.446,1.689 -5.052,3.165 -7.358,5.039 -2.402,1.955 -6.696,6.438 -6.696,6.438 L 58.813,49.902 46.973,36.88 36.432,28.03 24.198,17.416 c 0,0 -0.019,-1.501 -0.284,-3.117 -0.294,-1.797 0.627,-2.406 0.082,-4.147 C 22.659,5.884 16.421,1.055 12.101,-0.107 8.292,-1.13 2.515,-3.037 0.001,0 Z"
       style="fill:none;stroke:#ffffff;stroke-width:2.20000005;stroke-linecap:butt;stroke-linejoin:miter;stroke-miterlimit:4;stroke-dasharray:none;stroke-opacity:1"
       id="path3237"
       inkscape:connector-curvature="0" /></g></g></g></svg>